{
  "project_info": {
    "project_number": "434433100169",
    "firebase_url": "https://quickchat-c8955.firebaseio.com",
    "project_id": "quickchat-c8955",
    "storage_bucket": "quickchat-c8955.appspot.com"
  },
  "client": [
    {
      "client_info": {
        "mobilesdk_app_id": "1:434433100169:android:658abb6c858044d2",
        "android_client_info": {
          "package_name": "com.stivayou.quickchat"
        }
      },
      "oauth_client": [
        {
          "client_id": "434433100169-tebqruv7grle45i3186g6dtmak8egemr.apps.googleusercontent.com",
          "client_type": 1,
          "android_info": {
            "package_name": "com.stivayou.quickchat",
            "certificate_hash": "b2e54dde34129cc70849906a929091974fbdf533"
          }
        },
        {
          "client_id": "434433100169-7rnoqde83ac9u2bi97jntnco8m45ugft.apps.googleusercontent.com",
          "client_type": 3
        }
      ],
      "api_key": [
        {
          "current_key": "AIzaSyAJ_MSMn-UZX1l6KIt3Yrk6Td688qyisdU"
        }
      ],
      "services": {
        "analytics_service": {
          "status": 1
        },
        "appinvite_service": {
          "status": 2,
          "other_platform_oauth_client": [
            {
              "client_id": "434433100169-7rnoqde83ac9u2bi97jntnco8m45ugft.apps.googleusercontent.com",
              "client_type": 3
            }
          ]
        },
        "ads_service": {
          "status": 2
        }
      }
    }
  ],
  "configuration_version": "1"
}